{
  "$schema": "../../../node_modules/@angular-devkit/schematics/collection-schema.json",
  "schematics": {
    "routable": {
      "description": "Generates routable component",
      "factory": "./routable/index#routableSchematics",
      "schema": "./routable/schema.json"
    },
    "container": {
      "description": "Generates container component",
      "factory": "./container/index#containerSchematics",
      "schema": "./container/schema.json"
    },
    "dialog": {
      "description": "Generates dialog component",
      "factory": "./dialog/index#dialogSchematics",
      "schema": "./dialog/schema.json"
    },
    "presentational": {
      "description": "Generates presentational component",
      "factory": "./presentational/index#presentationalSchematics",
      "schema": "./presentational/schema.json"
    },
    "store-resource": {
      "description": "Generates NGXS store for resource",
      "factory": "./store-resource/index#storeResourceSchematics",
      "schema": "./store-resource/schema.json"
    },
    "store-composition": {
      "description": "Generates NGXS store for composition",
      "factory": "./store-composition/index#storeCompositionSchematics",
      "schema": "./store-composition/schema.json"
    },
    "store-relation-2-tiers": {
      "description": "Generates NGXS store for relation-2-tiers",
      "factory": "./store-relation-2-tiers/index#storeRelation2TiersSchematics",
      "schema": "./store-relation-2-tiers/schema.json"
    }
  }
}
